%YAML 1.1
%TAG !u! tag:unity3d.com,2011:
--- !u!114 &11400000
MonoBehaviour:
  m_ObjectHideFlags: 0
  m_CorrespondingSourceObject: {fileID: 0}
  m_PrefabInstance: {fileID: 0}
  m_PrefabAsset: {fileID: 0}
  m_GameObject: {fileID: 0}
  m_Enabled: 1
  m_EditorHideFlags: 0
  m_Script: {fileID: 11500000, guid: 9d1514134bc4fbd41bb739b1b9a49231, type: 3}
  m_Name: TilledRuleTile
  m_EditorClassIdentifier: 
  m_DefaultSprite: {fileID: 21300172, guid: 975173ba7033445fd8b63b9f1eb9060b, type: 3}
  m_DefaultColliderType: 1
  RuleNames:
  - Click to set rule name
  - 
  - 
  - 
  - 
  - 
  - 
  - Click to set rule name
  - 
  - 
  - 
  - 
  - 
  firstExists: 0
  These: 1
  DefaultNumOfThese: 1
  TheseNumberOfTiles: 02000000000000
  NotZero: 5
  firstExists2: 0
  NotThese: 1
  DefaultNumOfNotThese: 1
  NotTheseNumberOfTiles: 020000000000
  t1:
  - {fileID: 11400000, guid: 388356538e2b6b94081f35f70208ed50, type: 2}
  - {fileID: 11400000}
  t2: []
  t3: []
  t4: []
  t5: []
  t6: []
  t7: []
  n1:
  - {fileID: 11400000, guid: 388356538e2b6b94081f35f70208ed50, type: 2}
  - {fileID: 11400000}
  n2: []
  n3: []
  n4: []
  n5: []
  n6: []
  m_TilingRules:
  - m_Neighbors: 0300000003000000030000000300000003000000030000000300000003000000
    m_Sprites:
    - {fileID: 21300172, guid: 975173ba7033445fd8b63b9f1eb9060b, type: 3}
    m_AnimationSpeed: 1
    m_PerlinScale: 0.5
    m_RuleTransform: 0
    m_Output: 0
    m_ColliderType: 1
    m_RandomTransform: 0
  - m_Neighbors: 0a0000000a000000000000000a00000003000000000000000300000003000000
    m_Sprites:
    - {fileID: 21300140, guid: 975173ba7033445fd8b63b9f1eb9060b, type: 3}
    m_AnimationSpeed: 1
    m_PerlinScale: 0.5
    m_RuleTransform: 0
    m_Output: 0
    m_ColliderType: 1
    m_RandomTransform: 0
  - m_Neighbors: 000000000a0000000a000000030000000a000000030000000300000000000000
    m_Sprites:
    - {fileID: 21300144, guid: 975173ba7033445fd8b63b9f1eb9060b, type: 3}
    m_AnimationSpeed: 1
    m_PerlinScale: 0.5
    m_RuleTransform: 0
    m_Output: 0
    m_ColliderType: 1
    m_RandomTransform: 0
  - m_Neighbors: 0000000003000000030000000a000000030000000a0000000a00000000000000
    m_Sprites:
    - {fileID: 21300200, guid: 975173ba7033445fd8b63b9f1eb9060b, type: 3}
    m_AnimationSpeed: 1
    m_PerlinScale: 0.5
    m_RuleTransform: 0
    m_Output: 0
    m_ColliderType: 1
    m_RandomTransform: 0
  - m_Neighbors: 030000000300000000000000030000000a000000000000000a0000000a000000
    m_Sprites:
    - {fileID: 21300204, guid: 975173ba7033445fd8b63b9f1eb9060b, type: 3}
    m_AnimationSpeed: 1
    m_PerlinScale: 0.5
    m_RuleTransform: 0
    m_Output: 0
    m_ColliderType: 1
    m_RandomTransform: 0
  - m_Neighbors: 000000000a000000000000000300000003000000030000000300000003000000
    m_Sprites:
    - {fileID: 21300142, guid: 975173ba7033445fd8b63b9f1eb9060b, type: 3}
    m_AnimationSpeed: 1
    m_PerlinScale: 0.5
    m_RuleTransform: 0
    m_Output: 0
    m_ColliderType: 1
    m_RandomTransform: 0
  - m_Neighbors: 0300000003000000030000000300000003000000000000000a00000000000000
    m_Sprites:
    - {fileID: 21300202, guid: 975173ba7033445fd8b63b9f1eb9060b, type: 3}
    m_AnimationSpeed: 1
    m_PerlinScale: 0.5
    m_RuleTransform: 0
    m_Output: 0
    m_ColliderType: 1
    m_RandomTransform: 0
  - m_Neighbors: 0000000003000000030000000a00000003000000000000000300000003000000
    m_Sprites:
    - {fileID: 21300170, guid: 975173ba7033445fd8b63b9f1eb9060b, type: 3}
    m_AnimationSpeed: 1
    m_PerlinScale: 0.5
    m_RuleTransform: 0
    m_Output: 0
    m_ColliderType: 1
    m_RandomTransform: 0
  - m_Neighbors: 030000000300000000000000030000000a000000030000000300000000000000
    m_Sprites:
    - {fileID: 21300174, guid: 975173ba7033445fd8b63b9f1eb9060b, type: 3}
    m_AnimationSpeed: 1
    m_PerlinScale: 0.5
    m_RuleTransform: 0
    m_Output: 0
    m_ColliderType: 1
    m_RandomTransform: 0
  - m_Neighbors: 03000000030000000a0000000300000003000000030000000300000003000000
    m_Sprites:
    - {fileID: 21300176, guid: 975173ba7033445fd8b63b9f1eb9060b, type: 3}
    m_AnimationSpeed: 1
    m_PerlinScale: 0.5
    m_RuleTransform: 0
    m_Output: 0
    m_ColliderType: 1
    m_RandomTransform: 0
  - m_Neighbors: 0a00000003000000030000000300000003000000030000000300000003000000
    m_Sprites:
    - {fileID: 21300178, guid: 975173ba7033445fd8b63b9f1eb9060b, type: 3}
    m_AnimationSpeed: 1
    m_PerlinScale: 0.5
    m_RuleTransform: 0
    m_Output: 0
    m_ColliderType: 1
    m_RandomTransform: 0
  - m_Neighbors: 03000000030000000300000003000000030000000a0000000300000003000000
    m_Sprites:
    - {fileID: 21300148, guid: 975173ba7033445fd8b63b9f1eb9060b, type: 3}
    m_AnimationSpeed: 1
    m_PerlinScale: 0.5
    m_RuleTransform: 0
    m_Output: 0
    m_ColliderType: 1
    m_RandomTransform: 0
  - m_Neighbors: 030000000300000003000000030000000300000003000000030000000a000000
    m_Sprites:
    - {fileID: 21300146, guid: 975173ba7033445fd8b63b9f1eb9060b, type: 3}
    m_AnimationSpeed: 1
    m_PerlinScale: 0.5
    m_RuleTransform: 0
    m_Output: 0
    m_ColliderType: 1
    m_RandomTransform: 0
