%YAML 1.1
%TAG !u! tag:unity3d.com,2011:
--- !u!114 &11400000
MonoBehaviour:
  m_ObjectHideFlags: 0
  m_CorrespondingSourceObject: {fileID: 0}
  m_PrefabInstance: {fileID: 0}
  m_PrefabAsset: {fileID: 0}
  m_GameObject: {fileID: 0}
  m_Enabled: 1
  m_EditorHideFlags: 0
  m_Script: {fileID: 11500000, guid: 27af9beaf4dfdbd4da876019a4119f87, type: 3}
  m_Name: Watered_TileData
  m_EditorClassIdentifier: 
  autoUpdate: 0
  tile: {fileID: 11400000, guid: b06253f0d4e2b744888d9973f42ddeac, type: 2}
  type: 3
  IsTillable: 0
  IsWalkable: 0
  endHeight: 0
