%YAML 1.1
%TAG !u! tag:unity3d.com,2011:
--- !u!114 &11400000
MonoBehaviour:
  m_ObjectHideFlags: 0
  m_CorrespondingSourceObject: {fileID: 0}
  m_PrefabInstance: {fileID: 0}
  m_PrefabAsset: {fileID: 0}
  m_GameObject: {fileID: 0}
  m_Enabled: 1
  m_EditorHideFlags: 0
  m_Script: {fileID: 11500000, guid: 1d8b3889b713b4745910718d84abacef, type: 3}
  m_Name: Carrot_PlantData
  m_EditorClassIdentifier: Assembly-CSharp::PlantData
  itemName: Carrot Plant
  icon: {fileID: 21300000, guid: 4316521e6d3e3c642bd303e48d3c0f24, type: 3}
  growthStageSprites:
  - {fileID: 21300000, guid: 7fae117c771274d498070e959b46c3dd, type: 3}
  - {fileID: 21300000, guid: 21083381e86fe1046878f918503fbe2d, type: 3}
  - {fileID: 21300000, guid: 7aa3cb1525fcc0647a7ce822f4e7888d, type: 3}
  - {fileID: 21300000, guid: ff42cb1cf946a2246b72af1b27d98279, type: 3}
  - {fileID: 21300000, guid: 4316521e6d3e3c642bd303e48d3c0f24, type: 3}
  daysToAdvanceStage: 1
  plantMaterial: {fileID: 2100000, guid: 31b2df44541b16d47a8895e61a75da6b, type: 2}
  resultingCrop: {fileID: 11400000, guid: 6dfb23dee73216b409e9d40ac12d0218, type: 2}
  cropYield: 1
